<svg width="36" height="37" viewBox="0 0 36 37" fill="none" xmlns="http://www.w3.org/2000/svg">
<rect y="0.5" width="36" height="36" rx="18" fill="#9587EA"/>
<mask id="mask0_7_218475" style="mask-type:alpha" maskUnits="userSpaceOnUse" x="9" y="9" width="18" height="18">
<path fill-rule="evenodd" clip-rule="evenodd" d="M13.95 11.3C13.95 10.3059 14.7559 9.5 15.75 9.5H16.2H19.8H20.25C21.2441 9.5 22.05 10.3059 22.05 11.3V12.65H21.6C20.7613 12.65 20.0565 12.0764 19.8567 11.3H16.1433C15.9435 12.0764 15.2387 12.65 14.4 12.65H13.95V11.3Z" fill="black"/>
<path fill-rule="evenodd" clip-rule="evenodd" d="M27 17.6001H9V26.1501H23.4C25.3882 26.1501 27 24.5383 27 22.5501V17.6001ZM17.55 18.9501C16.5559 18.9501 15.75 19.756 15.75 20.7501V21.2001H18.45C19.4441 21.2001 20.25 20.3942 20.25 19.4001V18.9501H17.55Z" fill="url(#paint0_linear_7_218475)"/>
<path d="M9 17.15C9 15.1618 10.6118 13.55 12.6 13.55H27V17.6H9V17.15Z" fill="black"/>
</mask>
<g mask="url(#mask0_7_218475)">
<path d="M7.20001 7.69995H28.8V29.2999H7.20001V7.69995Z" fill="white"/>
</g>
<defs>
<linearGradient id="paint0_linear_7_218475" x1="26.1" y1="26.5776" x2="9.87702" y2="16.8853" gradientUnits="userSpaceOnUse">
<stop stop-opacity="0.8"/>
<stop offset="1" stop-opacity="0.4"/>
</linearGradient>
</defs>
</svg>
